@startuml

class Epithet extends TreeJunction {
    burden:Prose
}

Epithet -- Labelled
(Epithet,Labelled).EpithetAssociation

class TreeJunction {
    rootward:Junction
    leafward:OrderedSet
    burden:Comparable
}

class EpithetSelections {
    Set<Epithet>
}

Epithet -* EpithetSelections
EpithetSelections -|> ActiveCollection

class EpithetSelector

note Top of ActiveCollection:generates an action when something added or removed

@enduml